<?xml version="1.0" encoding="UTF-8" standalone="no"?>
<svg
   width="3840"
   height="2160"
   version="1.1"
   viewBox="0 0 1016 571.5"
   id="svg41"
   xmlns:xlink="http://www.w3.org/1999/xlink"
   xmlns="http://www.w3.org/2000/svg"
   xmlns:svg="http://www.w3.org/2000/svg">
  <defs
     id="defs21">
    <linearGradient
       id="c">
      <stop
         style="stop-color:#23bac2"
         offset="0"
         id="stop2" />
      <stop
         style="stop-color:#4aaee6;stop-opacity:0"
         offset="1"
         id="stop4" />
    </linearGradient>
    <linearGradient
       id="k"
       x1="1907.1885"
       x2="2274.0867"
       y1="572.32483"
       y2="-20.156786"
       gradientTransform="translate(-1989.8 93.019)"
       gradientUnits="userSpaceOnUse">
      <stop
         stop-color="#316fd8"
         style="stop-color:#8c42ab;stop-opacity:1"
         offset="0"
         id="stop7" />
      <stop
         stop-color="#316fd8"
         style="stop-color:#4a88f1;stop-opacity:1"
         offset="0.56464756"
         id="stop1661" />
      <stop
         stop-color="#23bac2"
         style="stop-color:#23bac2;stop-opacity:1"
         offset="1"
         id="stop9" />
    </linearGradient>
    <linearGradient
       id="j"
       x1="-2854.6"
       x2="-2854.6"
       y1="-233.83"
       y2="22.863"
       gradientTransform="translate(2875.9 134.57)"
       gradientUnits="userSpaceOnUse">
      <stop
         style="stop-color:#23bac2"
         offset="0"
         id="stop12" />
      <stop
         style="stop-color:#367bf0;stop-opacity:0"
         offset="1"
         id="stop14" />
    </linearGradient>
    <linearGradient
       id="i"
       x1="-2854.6"
       x2="-2854.6"
       y1="-233.83"
       y2="128.08"
       gradientTransform="translate(3303.8 134.57)"
       gradientUnits="userSpaceOnUse"
       xlink:href="#c" />
    <linearGradient
       id="h"
       x1="-2854.6"
       x2="-2854.6"
       y1="-233.83"
       y2="218.11"
       gradientTransform="translate(3731.7 134.57)"
       gradientUnits="userSpaceOnUse"
       xlink:href="#c" />
    <linearGradient
       id="g"
       x1="-2854.6"
       x2="-2854.6"
       y1="-233.83"
       y2="218.11"
       gradientTransform="translate(3912.3,238.81)"
       gradientUnits="userSpaceOnUse"
       xlink:href="#c" />
    <linearGradient
       id="f"
       x1="-2854.6"
       x2="-2854.6"
       y1="-233.83"
       y2="218.11"
       gradientTransform="translate(4092.8,343.06)"
       gradientUnits="userSpaceOnUse"
       xlink:href="#c" />
  </defs>
  <rect
     x="-4.8828e-5"
     y="3.6621e-6"
     width="1016"
     height="571.5"
     fill="url(#a)"
     style="fill:url(#k);paint-order:fill markers stroke"
     id="rect23" />
</svg>
